{
  "data": {
    "id": "31054",
    "type": "token",
    "attributes": {
      "access_token": "7vkV9rZizoZ8MR5zNzwsFvfr23IaAYzMo3zdS5y_tj4",
      "token_type": "Bearer",
      "expires_in": 7200,
      "refresh_token": "uABczFfqIlv6HcVGDVrxH2qE9fyXjV_SJn4lEMcluVc",
      "created_at": 1704514268
    }
  }
}
