{
  "data": [
    {
      "id": "d5de6a8f8f5f1cfe51bc",
      "type": "survey",
      "attributes": {
        "title": "Scarlett Bangkok",
        "description": "We'd love ot hear from you!",
        "thank_email_above_threshold": "<span style=\"font-family:arial,helvetica,sans-serif\"><span style=\"font-size:14px\">Dear {name},<br /><br />Thank you for visiting Scarlett Wine Bar &amp; Restaurant at Pullman Bangkok Hotel G &nbsp;and for taking the time to complete our guest feedback survey!<br /><br />Your feedback is very important to us and each survey is read individually by the management and owners shortly after it is sent. We discuss comments and suggestions at our daily meetings and use them to constantly improve our services.<br /><br />We would very much appreciate it if you could take a few more moments and review us on TripAdvisor regarding your recent visit. By <a href=\"https://www.tripadvisor.com/Restaurant_Review-g293916-d2629404-Reviews-Scarlett_Wine_Bar_Restaurant-Bangkok.html\">clicking here</a> you will be directed to our page.&nbsp;<br /><br />Thank you once again and we look forward to seeing you soon!<br /><br />The Team at Scarlett Wine Bar &amp; Restaurant&nbsp;</span></span><span style=\"font-family:arial,helvetica,sans-serif; font-size:14px\">Pullman Bangkok Hotel G</span>",
        "thank_email_below_threshold": "<span style=\"font-size:14px\"><span style=\"font-family:arial,helvetica,sans-serif\">Dear {name},<br /><br />Thank you for visiting&nbsp;</span></span><span style=\"font-family:arial,helvetica,sans-serif; font-size:14px\">Uno Mas at Centara Central World&nbsp;</span><span style=\"font-size:14px\"><span style=\"font-family:arial,helvetica,sans-serif\">&nbsp;and for taking the time to complete our customer&nbsp;feedback survey.</span></span><br /><br /><span style=\"font-family:arial,helvetica,sans-serif; font-size:14px\">The Team at&nbsp;</span><span style=\"font-family:arial,helvetica,sans-serif\"><span style=\"font-size:14px\">Scarlett Wine Bar &amp; Restaurant&nbsp;</span></span><span style=\"font-family:arial,helvetica,sans-serif; font-size:14px\">Pullman Bangkok Hotel G</span>",
        "is_active": true,
        "cover_image_url": "https://dhdbhh0jsld0o.cloudfront.net/m/1ea51560991bcb7d00d0_",
        "created_at": "2017-01-23T07:48:12.991Z",
        "active_at": "2015-10-08T07:04:00.000Z",
        "inactive_at": null,
        "survey_type": "Restaurant"
      },
      "relationships": {
        "questions": {
          "data": [
            {
              "id": "d3afbcf2b1d60af845dc",
              "type": "question"
            },
            {
              "id": "940d229e4cd87cd1e202",
              "type": "question"
            },
            {
              "id": "ea0555f328b3b0124127",
              "type": "question"
            },
            {
              "id": "16e68f5610ef0e0fa4db",
              "type": "question"
            },
            {
              "id": "bab38ad82eaf22afcdfe",
              "type": "question"
            },
            {
              "id": "85275a0bf28a6f3b1e63",
              "type": "question"
            },
            {
              "id": "642770376f7cd0c87d3c",
              "type": "question"
            },
            {
              "id": "b093a6ad9a6a466fa787",
              "type": "question"
            },
            {
              "id": "e593b2fa2f81891a2b1e",
              "type": "question"
            },
            {
              "id": "c3a9b8ce5c2356010703",
              "type": "question"
            },
            {
              "id": "fbf5d260de1ee6195473",
              "type": "question"
            },
            {
              "id": "4372463ce56db58c0983",
              "type": "question"
            }
          ]
        }
      }
    }
  ],
  "meta": {
    "page": 1,
    "pages": 10,
    "page_size": 2,
    "records": 20
  }
}

